[gd_scene load_steps=5 format=2]

[ext_resource path="res://textures/rocket.png" type="Texture" id=1]
[ext_resource path="res://textures/rocket_flame.png" type="Texture" id=3]

[sub_resource type="GDScript" id=2]
script/source = "extends RigidBody2D


export (float) var speed: float = 21
export (float) var turn_speed: float = 35
export (float) var max_speed: float = 4000
export (float) var max_turn_speed: float = 10


func _integrate_forces(state):
    if state.linear_velocity.length() > max_speed:
        state.linear_velocity = state.linear_velocity.normalized() * max_speed

    if state.angular_velocity > max_turn_speed:
        state.angular_velocity = max_turn_speed
    if state.angular_velocity < -max_turn_speed:
        state.angular_velocity = -max_turn_speed


func _physics_process(_delta: float) -> void:
    if Input.is_action_pressed('right'):
        self.apply_torque_impulse(turn_speed)
    if Input.is_action_pressed('left'):
        self.apply_torque_impulse(-turn_speed)
    if Input.is_action_pressed('up'):
        self.apply_central_impulse(Vector2(0, -speed).rotated(self.rotation))

        $sprite.animation = \"flame\"
    else:
        $sprite.animation = \"default\"
"

[sub_resource type="SpriteFrames" id=1]
animations = [ {
"frames": [ ExtResource( 1 ) ],
"loop": true,
"name": "default",
"speed": 5.0
}, {
"frames": [ ExtResource( 3 ) ],
"loop": true,
"name": "flame",
"speed": 5.0
} ]

[node name="rocket" type="RigidBody2D"]
mass = 0.1
gravity_scale = 0.0
linear_damp = 0.0
angular_damp = 0.0
script = SubResource( 2 )

[node name="sprite" type="AnimatedSprite" parent="."]
position = Vector2( 0, -46.3268 )
scale = Vector2( 0.25, 0.25 )
frames = SubResource( 1 )

[node name="CollisionShape" type="CollisionPolygon2D" parent="."]
position = Vector2( 0, -46.3268 )
polygon = PoolVector2Array( 0, -112.25, 9, -109.5, 21.25, -97, 34.5628, -68.0126, 44.25, -24.25, 45.25, -6.5, 60.5, 5, 62.25, 10.5, 62.25, 73.75, 59.75, 76.5, 30.5, 55.5, 25.5, 44.75, -26.75, 44.5, -29.25, 53.5, -59.75, 76.5, -62.5, 73, -62.25, 9.75, -59.5, 3.5, -44.25, -7.25, -43, -24.5, -34.25, -69.25, -19.5, -100, -8.75, -110.25 )

[node name="Camera" type="Camera2D" parent="."]
current = true
zoom = Vector2( 7, 7 )
