<?xml version="1.0" encoding="UTF-8" standalone="no"?>
<svg
   version="1.0"
   width="499.99997"
   height="898.96851"
   viewBox="0 0 374.99998 674.2264"
   preserveAspectRatio="xMidYMid meet"
   id="svg877"
   sodipodi:docname="rocket.svg"
   inkscape:version="1.1-dev (b27f5715b4, 2020-10-07)"
   xmlns:inkscape="http://www.inkscape.org/namespaces/inkscape"
   xmlns:sodipodi="http://sodipodi.sourceforge.net/DTD/sodipodi-0.dtd"
   xmlns="http://www.w3.org/2000/svg"
   xmlns:svg="http://www.w3.org/2000/svg">
  <defs
     id="defs881" />
  <sodipodi:namedview
     pagecolor="#ffffff"
     bordercolor="#666666"
     borderopacity="1"
     objecttolerance="10"
     gridtolerance="10"
     guidetolerance="10"
     inkscape:pageopacity="0"
     inkscape:pageshadow="2"
     inkscape:window-width="2161"
     inkscape:window-height="1413"
     id="namedview879"
     showgrid="false"
     units="px"
     fit-margin-top="0"
     fit-margin-left="0"
     fit-margin-right="0"
     fit-margin-bottom="0"
     inkscape:pagecheckerboard="true"
     inkscape:zoom="0.70371094"
     inkscape:cx="31.262837"
     inkscape:cy="418.4957"
     inkscape:window-x="0"
     inkscape:window-y="0"
     inkscape:window-maximized="1"
     inkscape:current-layer="svg877" />
  <metadata
     id="metadata869">
Created by potrace 1.15, written by Peter Selinger 2001-2017
</metadata>
  <path
     d="M 134.09975,29.859217 C 116.11517,51.6459 100.60499,81.942061 87.357958,121.32104 70.06742,172.52879 58.540394,234.93164 55.070216,295.91625 c -0.935439,17.04913 -0.965615,17.26036 -2.082107,19.70457 -2.021756,4.5565 -3.530528,5.58246 -34.701779,24.50248 C 9.4449205,345.46435 2.8968457,354.48682 0.7242126,364.26367 0.21122978,366.58718 1.56e-6,392.6286 1.56e-6,462.57531 c 0,86.06042 0.09052638,95.44498 0.93543926,97.73832 1.78035218,4.73755 5.12982818,6.21614 9.86737518,4.43579 2.323511,-0.87509 5.884215,-3.28912 26.25265,-18.16563 12.945273,-9.44491 31.1109,-22.66177 40.34459,-29.36072 18.920014,-13.79018 20.33826,-15.02738 24.291244,-21.87721 3.50036,-5.97474 5.22036,-11.37615 5.73334,-17.80352 0.27158,-3.59088 1.26737,-5.55228 3.34948,-6.78948 1.20701,-0.66386 13.69965,-0.78456 76.37408,-0.75438 41.24986,0.0302 75.43865,0.18105 75.98181,0.3621 2.44422,0.81474 4.6772,4.49615 4.49615,7.45334 -0.12071,2.11228 1.32772,8.26808 2.74596,11.73826 1.93123,4.76772 4.37544,8.66035 7.63439,12.28141 2.59509,2.95719 4.5565,4.43579 25.19651,19.46317 12.28142,8.96211 30.35652,22.08844 40.16354,29.24002 9.77685,7.12141 18.61826,13.36773 19.58387,13.85054 3.50036,1.75017 7.06106,1.44842 9.29405,-0.78457 2.89684,-2.89684 2.77614,0.72421 2.74596,-100.69551 0,-64.15302 -0.21123,-95.86743 -0.66386,-98.00989 -1.41824,-7.09123 -4.88842,-13.57896 -10.1993,-18.88984 -3.34948,-3.40983 -3.83229,-3.71158 -20.03651,-13.63931 -9.14316,-5.58246 -17.16983,-10.71228 -17.86387,-11.40632 -1.8407,-1.90105 -2.68562,-4.61685 -2.80632,-9.32422 -0.63368,-25.13616 -4.70737,-63.91162 -9.74667,-92.66883 C 298.73706,133.48175 270.22125,62.47889 236.15315,25.876057 209.44787,-2.8208058 180.99241,-7.7394058 153.53274,11.572889 c -4.88842,3.440002 -15.1179,13.065974 -19.43299,18.286328 z m 22.9937,90.707433 c 16.7172,-11.16492 39.04704,-12.73404 56.72986,-3.86246 6.48773,3.22878 8.60001,4.7979 14.8765,11.0744 6.2765,6.27649 7.8758,8.41895 11.0744,14.8765 7.03088,14.03159 7.63439,31.5937 1.62947,46.3495 -7.18176,17.68282 -22.81265,30.53757 -41.70248,34.33968 -5.37124,1.02596 -15.72142,1.11649 -21.00212,0.1207 -20.48914,-3.89264 -37.17617,-18.40703 -43.63372,-38.02108 -1.99158,-6.09544 -2.80632,-11.13475 -2.83649,-17.68282 0,-12.61334 3.50035,-23.47651 10.98386,-33.85687 2.77615,-3.86246 9.74668,-10.53123 13.88072,-13.33755 z"
     id="path871"
     style="fill:#ffffff;stroke:none;stroke-width:0.1;fill-opacity:1" />
  <path
     d="m 135.72922,511.58026 c -0.78456,3.25895 0.0302,17.04914 1.68983,28.84774 5.09965,35.93897 21.8772,86.09059 38.95652,116.14535 6.6386,11.64772 13.24702,18.79931 16.23439,17.50176 1.50878,-0.66386 2.17264,-1.99158 4.40562,-8.63018 6.54807,-19.40282 13.09615,-35.9088 24.65335,-61.88987 8.69053,-19.49334 10.25966,-23.29545 13.09615,-31.86528 5.16,-15.54036 7.69474,-33.9474 7.51369,-54.58741 l -0.0603,-6.33685 -1.75018,-1.44842 c -1.26737,-1.08632 -2.38386,-1.5993 -4.22456,-1.99158 -1.38807,-0.2414 -23.02388,-0.45263 -48.12986,-0.45263 -37.96073,0 -46.04775,0.1207 -48.06951,0.81474 -2.89684,1.02596 -3.86246,1.87088 -4.31509,3.89263 z"
     id="path873"
     style="fill:#ffffff;stroke:none;stroke-width:0.1;fill-opacity:1" />
</svg>
